HTW Project - Individual Differenes
…
  mutate(
    across(
      c(vx_c), 
      list(
        # Between-person center (= person's mean)
        b = ~ mean(.), 
        # Within-person center (= deviation from person's mean)
        w = ~ . - mean(.)
      ),
      .names = "{.col}{.fn}"
    )
  ) %>% 
  ungroup()

# A tibble: 936 × 7
   id    condit bandInt    vx  vx_c vx_cb vx_cw
   <fct> <fct>    <dbl> <dbl> <dbl> <dbl> <dbl>
 1 1     Varied     100  565. -27.5 -27.5     0
 2 1     Varied     350  791.  76.1  76.1     0
 3 1     Varied     600  985. 160.  160.      0
 4 1     Varied     800 1061.  22.1  22.1     0
 5 1     Varied    1000 1187.  10.3  10.3     0
 6 1     Varied    1200 1379.  90.1  90.1     0
 7 2     Varied     100 1278. 686.  686.      0
 8 2     Varied     350 1321. 606.  606.      0
 9 2     Varied     600 1346. 522.  522.      0
10 2     Varied     800 1614. 575.  575.      0
# ℹ 926 more rows
…
