HTW Project - Bayesian Mixed Effects Models - Training Data
…
mod_train_expo3_band_distS <- bf(distS ~ betaMu + (alphaMu - betaMu) * exp(-exp(gammaMu) * gt.train),
                 betaMu ~ 1 + bandIntS + (1|id), 
                 alphaMu ~ 1 + bandIntS +   (1|id), 
                 gammaMu ~ 1 + bandIntS + (1|id), 
                 nl = TRUE)

e1_train_expo3_band_distS <- brm(mod_train_expo3_band_distS,
                            chains=4, iter=2000, silent=0,
                            data=train,
                            file=here::here("data/model_cache/e1_train_expo3_band_distS"))
coef(e1_train_expo3_band_distS)$id |> as_tibble(rownames="id") |> select(starts_with("Esti")) |> print(n=15)

# A tibble: 166 × 6
   Estimate.betaMu_Intercept Estimate.alphaMu_Intercept Estimate.gammaMu_Inter…¹
                       <dbl>                      <dbl>                    <dbl>
 1                    0.0374                       4.63                   -0.778
 2                    0.267                        3.45                   -0.411
 3                   -0.0654                       4.56                   -0.657
 4                   -0.118                        1.30                   -0.186
 5                    0.132                        2.35                   -0.795
 6                   -0.158                        1.74                    0.331
 7                    0.168                        1.92                    0.181
 8                    0.0307                       1.08                    0.621
 9                   -0.433                        3.63                   -1.31 
10                   -0.369                        4.27                   -1.62 
11                   -0.414                        1.67                   -0.237
12                   -0.176                        3.24                   -1.98 
13                    0.112                        1.39                    0.645
14                   -0.141                        1.91                    0.176
15                   -0.370                        3.90                   -1.52 
# ℹ 151 more rows
# ℹ abbreviated name: ¹​Estimate.gammaMu_Intercept
# ℹ 3 more variables: Estimate.betaMu_bandIntS <dbl>,
#   Estimate.alphaMu_bandIntS <dbl>, Estimate.gammaMu_bandIntS <dbl>

Code
 mod_train_expo3_bandCondit_distS <- bf(distS ~ betaMu + (alphaMu - betaMu) * exp(-exp(gammaMu) * gt.train),
                 betaMu ~ 1 + bandIntS + condit + (1|id), 
                 alphaMu ~ 1 + bandIntS + condit +  (1|id), 
                 gammaMu ~ 1 + bandIntS + condit + (1|id), 
                 nl = TRUE)

e1_train_expo3_bandCondit_distS <- brm(mod_train_expo3_bandCondit_distS,
                            chains=4, iter=2000, silent=0,
                            data=train,
                            file=here::here("data/model_cache/e1_train_expo3_bandCondit_distS"))                           
coef(e1_train_expo3_bandCondit_distS)$id |> as_tibble(rownames="id") |> select(starts_with("Esti")) |> print(n=15)

# A tibble: 166 × 9
   Estimate.betaMu_Intercept Estimate.alphaMu_Intercept Estimate.gammaMu_Inter…¹
                       <dbl>                      <dbl>                    <dbl>
 1                   -0.230                        74.9                     25.4
 2                   -0.0105                       74.6                     25.9
 3                   -0.0861                       76.1                     25.9
 4                   -0.376                        73.2                     26.3
 5                    0.0808                       73.9                     25.7
 6                   -0.438                        73.4                     25.9
 7                   -0.0976                       73.5                     26.6
 8                   -0.230                        72.9                     27.0
 9                   -0.433                        75.0                     25.2
10                   -0.389                        75.8                     24.9
11                   -0.421                        73.4                     26.6
12                   -0.216                        74.5                     24.4
13                   -0.156                        73.1                     26.7
14                   -0.405                        73.7                     26.3
15                   -0.390                        75.4                     25.0
# ℹ 151 more rows
# ℹ abbreviated name: ¹​Estimate.gammaMu_Intercept
# ℹ 6 more variables: Estimate.betaMu_bandIntS <dbl>,
#   Estimate.betaMu_conditVaried <dbl>, Estimate.alphaMu_bandIntS <dbl>,
#   Estimate.alphaMu_conditVaried <dbl>, Estimate.gammaMu_bandIntS <dbl>,
#   Estimate.gammaMu_conditVaried <dbl>
…
