HTW Project - HTW E1 Testing
…
Varied
-0.2015803
0.2699048
0.5929183
0.8970100
1.295053

# A tibble: 2 × 7
  condit   SlopeInt  .lower .upper .width .point .interval
  <fct>       <dbl>   <dbl>  <dbl>  <dbl> <chr>  <chr>    
1 Constant    0.712 -0.0469   1.36   0.95 median qi       
2 Varied      0.580 -0.202    1.26   0.95 median qi       

# A tibble: 20,000 × 5
# Groups:   condit [2]
   condit   .chain .iteration .draw .value
   <fct>     <int>      <int> <int>  <dbl>
 1 Constant     NA         NA     1   842.
 2 Constant     NA         NA     2   834.
 3 Constant     NA         NA     3   848.
 4 Constant     NA         NA     4   837.
 5 Constant     NA         NA     5   838.
 6 Constant     NA         NA     6   839.
 7 Constant     NA         NA     7   820.
 8 Constant     NA         NA     8   799.
 9 Constant     NA         NA     9   816.
10 Constant     NA         NA    10   824.
# ℹ 19,990 more rows
…
