HTW Project - HTW Model
…
Figure 2: Full posterior predictive distributions vs. observed data from participants.

Code
post_tabs$agg_x_full |> mutate(Fit_Method=="Test_Train") 

# A tibble: 72 × 8
# Groups:   condit, Model, Fit_Method [12]
   condit   Model Fit_Method     x     y  pred mean_error Fit_Method == "Test_…¹
   <fct>    <chr> <chr>      <dbl> <dbl> <dbl>      <dbl> <lgl>                 
 1 Constant ALM   Test         100  524.  449.       203. FALSE                 
 2 Constant ALM   Test         350  659.  796.       250. FALSE                 
 3 Constant ALM   Test         600  770.  943.       264. FALSE                 
 4 Constant ALM   Test         800 1000.  939.       218. FALSE                 
 5 Constant ALM   Test        1000 1167.  940.       316. FALSE                 
 6 Constant ALM   Test        1200 1282.  945.       409. FALSE                 
 7 Constant ALM   Test_Train   100  524.  456.       195  TRUE                  
 8 Constant ALM   Test_Train   350  659.  773.       241. TRUE                  
 9 Constant ALM   Test_Train   600  770.  909.       255. TRUE                  
10 Constant ALM   Test_Train   800 1000.  907.       245. TRUE                  
# ℹ 62 more rows
# ℹ abbreviated name: ¹​`Fit_Method == "Test_Train"`
…
